\relax 
\catcode`"\active
\catcode`-\active
\select@language{czech}
\@writefile{toc}{\select@language{czech}}
\@writefile{lof}{\select@language{czech}}
\@writefile{lot}{\select@language{czech}}
\@writefile{toc}{\contentsline {section}{\numberline {1}\IeC {\'U}vod}{1}}
\@writefile{toc}{\contentsline {section}{\numberline {2}Rozbor a anal\IeC {\'y}za algoritmu}{1}}
\@writefile{toc}{\contentsline {subsection}{\numberline {2.1}Teoretick\IeC {\'a} \IeC {\v c}asov\IeC {\'a} slo\IeC {\v z}itost}{1}}
\@writefile{toc}{\contentsline {subsection}{\numberline {2.2}Teoretick\IeC {\'a} prostorov\IeC {\'a} slo\IeC {\v z}itost}{1}}
\@writefile{toc}{\contentsline {subsection}{\numberline {2.3}Teoretick\IeC {\'a} cena algoritmu}{1}}
\@writefile{toc}{\contentsline {section}{\numberline {3}Implementace}{2}}
\@writefile{toc}{\contentsline {section}{\numberline {4}Experimenty}{2}}
\@writefile{toc}{\contentsline {section}{\numberline {5}Komunika\IeC {\v c}n\IeC {\'\i } protokol}{3}}
\@writefile{toc}{\contentsline {section}{\numberline {6}Z\IeC {\'a}v\IeC {\v e}r}{3}}
