This is BibTeX, Version 0.99dThe top-level auxiliary file: proj3.aux
I found no \citation commands---while reading file proj3.aux
I found no \bibdata command---while reading file proj3.aux
I found no \bibstyle command---while reading file proj3.aux
(There were 3 error messages)
